.-.-..-.-..-.-..-.-..-.-..-.-..-.-...-...-...-...-...-...-...-...-...-...-...-...-...-...-...-...-..-.-..-.-..-.-..-.-..-.-..-.-..-.-..-.-..-.-..-.-..-.-..-.-..-.-...-...-...-...-...-...-...-...-...-...-...-...-...-...-...-.....-.-..-.-..-.-..-.-..-.-..-.-..-.-..-.-..-.-..-.-..-.-..-.-..-.-...-...-...-...-...-...-...-...-...-...-...-...-...-...-...-.....-.-..-.-..-.-..-.-.
.-.-.:.-.-.:..--.-.--.-.--.-.--.-.--.-.-.-.-.-.-.-.-.-.-.-.-.-.-.-.-.-.-.-.-.-.-.-.-.-.-.-.-.-.-.-..-.-.:.-.-.:..--.-.--.-.--.-.--.-.--.-.--.-.--.-.--.-.--.-.--.-.-.:..-.-.-.-.-.-.-.-.-.-.-.-.-.-.-.-.-.-.-.-.-.-.-.-.-.-.-.-.-.:.-.-.:.-.-.:..--.-.--.-.--.-.--.-.--.-.--.-.--.-.--.-.--.-.--.-.-.:..-.-.-.-.-.-.-.-.-.-.-.-.-.-.-.-.-.-.-.-.-.-.-.-.-.-.-.-.-.:.-.-.:.-.-.:..--.-.-
-.-.-...-.-..:..-.-..-.-..-.-..-.-..-..-.-..-..-.-..-..-.-..-..-.-..-..-.-..-..-.-..-..-.-..-..-..-.-.-...-.-...:..-.-..-.-..-.-..-.-..-.-..-.-..-.-..-.-..-.-..-.-....-.-..-.-..-..-.-..-..-.-..-..-.-..-..-.-..-..-.-..-..-.-..-...:....-.-...:..-.-..-.-..-.-..-.-..-.-..-.-..-.-..-.-..-.-..-.-....-.-..-.-..-..-.-..-..-.-..-..-.-..-..-.-..-..-.-..-..-.-..-...:....-.-...:..-.-.
.-.-.-.:.-.-...:.-.--.-.:.-.-.:.-.--..:...-.-.:...-.-.:...-.-.:...-.-.:...-.-.:...-.-.:...-.-.:..:..-.-.:.-.-.:...:.-.--.-.:.-.-.:.-.--.-.:.-.-.:.-.--.-.:.-.-.:.-.:.-..-..:...-.-.:...-.-.:...-.-.:...-.-.:...-.-.:...-.-.:...-.-..:..:.:..-.:...:.-.--.-.:.-.-.:.-.--.-.:.-.-.:.-.--.-.:.-.-.:.-.:.-..-..:...-.-.:...-.-.:...-.-.:...-.-.:...-.-.:...-.-.:...-.-..:..:.:..-.:...:.-.-
.-.-.-.._c.s,-..</:..-.-..-.-..a.-</a</.-_:..-..-.-..a..</:.a</.-.-..-..c.aa._c.s,aaa=,:.-.-....-...-.-..-.-.-..:...-.-.-.-..-.-...-.-.-.-..-.-...-.-.-.-..-.-...-....-.-.-..-.-..-..-.-..-..-.-..-..-.-..-..-.-..-..-.-..-..-.-..-...-....:...-.:...-..:....-.-...-.-.-.-..-.-...-.-.-.-..-.-...-....-.-.-..-.-..-..-.-..-..-.-..-..-.-..-..-.-..-..-.-..-..-.-..-...-....:...-.:...-.
.:..:.--:m.m :.:]f..-.-.-.-.-.:Q..-^Q-+Q.);.:...-..-.Q..]f..Q-^.-..-.-.](jF!k-m m Q""=6-..-..:.-..-.-.-.:..-.-.-..:..:..-.-.:..-.:.-.-.-.-.-.-.:.:..-.-.-.-.-.:.:.-.-.-.-..-..-.-.-...-.-.-...-.-.-...-.-.-...-.-.-...-.-.-...-.-..--.-.:.-..:.-...-.:.-..:.:..:.:.-.-.-.-.-.-.:.:..-.-.-.-.-.:.:.-.-.-.-..-..-.-.-...-.-.-...-.-.-...-.-.-...-.-.-...-.-.-...-.-..--.-.:.-..:.-...-.:.
...:...-.4=F-Q.Q]fQdmjTw.QdyUg.Q#p]fQjPQ\@$c .Q#p]f]fQ#p]mm;Qjkm$/yHg..j:Q ...4=k.Qaa.3:.-.-....-..-.-.-..:.-.-.-...:..-.-.-..:..-..:..-.-.-.-.....:.-.-.-.-.-....-.-.-..-.-.-.-..-.-.-..-..:..-.-..:..-.-..:..-.-..:..-.-..:..-.-...:....-.:..-.:.-...-.-....:....-.-.-.-.-.-.....:.-.-.-.-.-....-.-.-..-.-.-.-..-.-.-..-..:..-.-..:..-.-..:..-.-..:..-.-..:..-.-...:....-.:..-.:.-...
--...-.-.]m[.Q:Q]fQ:Q$?T.Q`w}Q.Q:W]fQ]fQ<p4f..Q;W]fjfQ:W]fjfQ]Qf.;w}Q..d:$;:a.]m[.Q--:j;:...-.:..-..:..-.:...-.-.:.:...-.-.-.-..:..:..-.-.-.-.:.:.:...-.-.-.-.-.:.-..-..:..-..-..:...:..:..-..-..-.-..-..-.-..-..-.-..-..-.-..-..-.:...:.:....-.-..-.:.-.-.:.:...:.-.-.-.-.-.-.:.:...-.-.-.-.-.:.:..-..-.-..-..-.-..-.-.-.-...:...-...:...-...:...-...:...-...:...-.:..:.:....-.-..-.:.
..:.:.-.::W-.$pQ]fQ.Q]gP.Q.$2Q,QmF]fQ]f$JmXL..QXF)m$fQmF]B@'Q]P$m(V2Q.:j;)$m(.:W-.Qgg>d:..-.-...-.-...:....-.-.-.....-.:..:..-.-..-..-.-.-.-.-......-.:..-.-.-.-..-.-.-...-..:..-..-...-..-..-.-.-..-..-.-..-..-.-..-..-.-..-..-.-...:.....:.:..-.:...-.-.-....-...-.-.-.-.-.-....-.:..-.-.-.-.....:..:..-.-.-.-..-.-..-..-.:...-.-.-...-.-.-...-.-.-...-.-.-...-.-...-....:.:..-.:...-
.:....-.........-:........-.........-:..-.....Q........ ....---.. ...-.-L....--......_f....-.-.-.-..:...:.:.-.-.:.:.:....:..:.-.-.-.-.-.-.-.-.-.:.:.-...:.-.-.-.-.-.-..-.-.-...-..-.-.-..-..:...-.-..-.-.-.-..:..-.-..:..-.-..:..-..:..:.:.....:....:.-.-.-.:.-.:.:..-.-.-.-.-.:.:...-.-.-.-.-.:.:......-..-..-..:..-.-.-.-...-..-..-.-..-..-.:..-..-.-..-..-.:..-..:.-.:.-....:....:.-
...:.-.------......:.-...:..-.-.-..:...-...-.-+.-......-.-.......-.-..:.:...-..-.:.-.::..-.-..-.-..-..:.....-.-.......:.:.....-.-.-.-.-.-.-.-.-..-..-.:...-.-.-.-.:..-.-.-..-.-.-.-..-.-..-...-.-..-.-.-..-.-...-..-.-..-..-.-..-..-..-....:.:...:.:..-.-.-...-.....:.-.-.-.-.-....:.-.-.-.-.-....-.-.:..-.-.-.-...-..-..-..:..-.-.-..-.:..:....-..:..-.:..:....-..-..-...-.:.:..:.:...
--...-.-.....:.:.:...-.:...-.-.:..:...-.-.:......-.-.-..-.-.:.-.:..-.-..-.:..-..-...-...-.-.-.-..-..:...:.:.-.-.:.:.:.....---.-.-.-.-.-.-.-.-.-.:..:...-.:..:.-.-...-..-..-.-.-..-..:...-.-.:..-.-.-.-..-.-..-.-.-.-..-..-.-..-..-..:..-.:....-.:....-.-.-.--.:.---...-.-.-.-.-.:.:..-.-.-.-.-.:.:.-....-.-..-..-.-.-.-.-.-...-..-..-.-...-..-.-.-...-....-..-.-..:..:..:.-.....-....--
..:.:.-.-<f.d?'r]:.-.:]:.-.:..-<?5)?c_j:.<f..:.-_j:_j:].f..-]?5,..-..-.-JYc75,<f..d:..-..-..-..-.-.-..:.....-.-.......:.:.-..:.-.-.-.-.-.-.:.-.-..:..--.-..:...-.:.:..:..:..-..-.-.-..-.-.-...-..-..-..:...-.-.-..-..:..:..-.-.-.-.-..:...-.:.-...-.:..-.-.-.-...-.---.-.-.-.:...-..-.-.:.-.:..-....-.:..-..:..:..-..-..-..-.-..:..:..-.-...-..-..-.-.-.:...-..-.-..-..:..-.:.:..-.:..-
.:....-.-~f.6a/P]Yc...]:f]:E5..".Jf.j-3._rf.....:3--3.4'E5.-]::[v?/J?/:.'_$`.f~f.]3..-..:..:..:...-..:..:.:.-.-.:.:.:....-.-...-.-.-.-.-.-...-.-.:...-.-.-...-.:.....-.....-..:...-..-.-..-.-..-.-.-.-...-.-..-..:..-.....-..-..-...-...:.-..-.--.:...:.-.-.-.-.:..-..-.-.-.-..:.-.-.-.-...-..:..:.:....-..:.....-.-.-.-.-.-.-.-.....-..-.:..-.-.-.-..-...-.-.-..-..-.-..-.-....:.-..:.
...:.-.-.-f.^-ff]:f._:j.fj.f].-_J'L.j.]:ja6.+?-:.]:.]:]:f]:.]::[gaff.:..v!]::[.f:gy/:..-.....-..-..-...-....-.-..-...-.:.-.-.:.-.-.-.-.-.-.:.-.-...-.-.-.-.:.-...:.:...-.:..-...-.-.-..-.-..-.:..-..-.-.-.-.-.-.-..-..-.:..-.-.-.-.:.--..-.--.-..:..-...-.-.-.-...:..:..:..:..:...-.-.-.-.:..:..-....-.:..-...:.-...-..-..-..-..-.:.-..:....:..-..-.-.-.-.-..-.-.-.-.-.-.-.-.:.:...-...
--...-.-.-f.6a(L]:f.)a2.6d.f]:.jwa{ar.]:..f...:..j..j.]/f]:.]wJ`5a`5a(..ga/oJ`:f..]:..-..-.:...-.-.-.:.-.:.:.-.:..--.-..-.-.-..-.-.-.-.:.-..-.-.:.-.-.:..-...-.:.....-.-...-.-.-.-..-.:..-.-....-..:...-.-..-..-..-..:....-.-..-......-.:..-.-.-...-.:.:..-.-.-.:...:..-..:..-..--.-.-.-.-..:...-.:.-....-..-....-.:..:..:..:..:.....-...-.-..-..:...-..-..-.-..-...-.-.-.-.-....--.:.:
..:.:.-.-..-....:...........:... ... .-....-.:.........:.:..: ..  .. .....:..-....-..-..:....-.-..-.-..-.....-...:..-.:.-.-.-.:..-.-.-...-.:..-...-.-...:.--.:...:.:..-..:..-..-..-.-...-..-.:.-..:...:...-.-.-.-.-.-..-.:...-.-.:.-.:....:..-.-.:.-.....:.-.-.-..:...-.-...-.-.-.-.-.-.-.-...-.:....-.:..-.-.-.-....-.....-.....-.:..-.-.-..-..:...:..:..:..-.-..:..:..-.-.-.:.-..-...
.:....-.-.:.......-.-.:...-...:.-....:..-.-.....-.-.-.-.........:.:..-..:...:...-..-..-...-.:..-.-..-.:..:.:..:.-..:....-.-.-...:.-.-.:.:....:.--.:..:.:....:..-..-..-..:...-.-.-.-..-.-..:.....-....-..-.-..-.-..-..-..-..-.-..-...-..:.:..:.-.-..-.:.:...-.-.-.:..:.-.-.:.-.-.-.-.-.-.-.-.:.-...:.-.-..-..-..-.-.:...-.:...-.:..-..-.-.-..:..-...-..-.....-..-.-..-..:.-.-.-..-.:.-.:
...-.:..-...:.-.:..-.-..--.-.:...-.:.....-..:..:...-....-.-.:.-.....-..-...:...:..-..:..-..-...-...-....-....:...-...:.:..-.-.:....-.-....:.:....-..-....-.:...-.:...-.-...-...-...-..-..-...-.-..:..-..-..-.-...:..-..:....-..:...-.-.....-...-.-.-.....:..-.-....-...-.-...-.-.-.-.-.-.-.-..-.:....-..-..:..-...-..-.-...-.-...-....-...-....-..-..-...:..-.-.....-.-...-.-..:....-..
.......................................................................................................................................................................................................................................................................................................................................................................................
:=+=+====+=========+===+=========+=====+==+=========+=+=+========+=+===+============+=====+===+===+==+=+=+=+=====+=+=======+=====+=+===+========+==+==+=+======+====+=======+==+==+==+===+===+===+=====+==+====+===========+==+=======+=+=+==+==+==+==+=+===+==+=+=+==+==+==+==+======+===+===+====+===+========+========+======+===+=+==+==+=+===+==+==+======+=+=+==+==+==+=====+=+==
:=+=+=+++=++++++++=+=++=+++++++++=+=++=+=+=+++++=+++=+=+=++++=+++=+=+++=+=+++=++=+++=+=+++=++=+=++=++=+=+=+=+++++=+=+++=+++=++++=+=+=++=+++++=++=++=++=+=+++++=+=+++=+++++++=++=++=++=+++=+=+=+++=+=+++=++=++++=+++++++++++=++=+=+++++=+=+=++=++=++=++=+=++=+=+=+=+=+=+=+=++=++=++++++=+=+=+++=+=++=+++=+=+++++=+=+++++++=++++++=+=+=+=++=++=+=+++=++=+=+=+++++=+=+=++=+=+=+=++++=+=+=+
.--------------------------------------------------------------------------------------------------------------------------------------------------------------------------------------------------------------------------------------------------------------------------------------------------------------------------------------------------------------------------------------
.:-::::-:::-:-:-:-:::::::-:-:-:-:-:::-:::-::-:.::-::-::-::-:-:-:-::-:-:-:::-::-:::-:-::-:-::-::-::-::::::::::-:-:-:::-:::-:::-:-::::::::-::-:::-:::-:::::-:-:-::::-:-:-:.:-:-:-::-:-::-:-:-::::-:-::-::-:-::-:-:-:-:.:-:.:-:-:-::-:-:-::::::-:::-:::-:::::-:::::::::::::::::-:::-:-:-::-:::::-::::::-:-:-::-:-:-:::-:-:-:-:-:.:-:-:::::-::-:-::-:-:-:-::-::-:.::-:-:::-:::::::-::-:::::
.......................................................................................................................................................................................................................................................................................................................................................................................
---.:..-.-.-.:.-.:.-..-..-.:.-.:.-.:...-..-..-.:..-..-..-..-..-.-..-.-.-...-..-....-.-..-.-...-..-....-...-..-.:.:.-.-.-.-.-.-.:.-..-..-.-.-.-.-.-.-.-..-.:.-.:..-.:..-.-.:..-.-..-..-..-..-....-..-..-..-..-..-..-.-.:.-.:..-.-..-..:.-..-.-.-.-.-.-.-..-.-.-.-..-..-..-..-.-.-.:.-.:.-.:..-.:..-..-..-.-..-..-....-..-..-.-.:..-......-..-..-..-..-.-..-..-.:..-..-.-.-.-.-.-.-.:..-.
...-..:.-.-.-..-...-.:..:.-..-...-...-.-.-..:....-..:..-.-..-.-..-.-..-..:..-..-.:..-..:...-.:..-.-.:.-.:.-.:......-.-.-.-.-.-...-.:..:..:..:..-.-.-.-.:....-...:....-.-.-..-...-..-.-.-.-.-.-.:..:..:..:..:..-.-.-..-...-..-..-.-..:...--.-.-.-.:..:.-.:..-.-.-.:..:..:..:..-.-...-...-...:....:..:..:...-.-.-.-.:..-.-.-..-...-.-.:.-.-.-..:..:..:...-.-.-....-.-.-.-.-.-.-.-.-...:.-
.:.-.:...-.-.-.-.:.-...:...-.-.:.-.:..-..-.-..-.-.-...-..-.:..-.-.-..:..-..-.-.-...-..:...:....-.-....-...-...:.:.:..-.-.-.-.-.:.-...:..-..:..:.-.:.-.-..:.:.--..-.:..-...-..-.:..:..-..-..-..-.....-.....-...-..-..:..-...-..:...-...-.-.-.-.-.-..:...-..:.-.-.-..:..-..:..:.-.--.:.:.-.:...:.:..-..-..-.-..-..-...-.-..-.:..-.-..-...-..-.-.....-..-.-..-.-.:..-..-.-.-.-.-.-.-.:...-
..-.-..-.:..:.-.-..-.:...--.-.-..-...-.-.-...-..-..-.:..:....-..-..-...-..-..-..-.:..-...-..-.:...-.:.-.:.-.:.......:.-.-.-.-.-..-.:...-.-...-...-...:..:.....-.:.-..:..:..-.-...-..-..:..:..:..-.:...-.:...-.-.-.-...-.-.:..-..-.-.-.-.:..-.-.-.-...-.-.:...-.-.-...-.-...-...-..:....-...:.....-.-...-.-.-.-.-.-.-.-..:....-.-..:..-.-.:...-.:.-..-..-.:...-..-..:..-.-.-.-.-.-..-.:.
--.-.-.-...:...:.-.:...:.-.-.-.-.:.:..-..-.:..-.-.-.-.....-.-..:..:..:..-.-.-.-.-...-..-.-.-....-.-...-...-..-.:.:.:...-.-.-.-.-.:...:.-.-.:..-.:..:...:..-.:.-...-.-.....-.-..:...-..:.....-...-...-.-...-.-..-..-.-..-....-..-.-..-.-...:..:..:.-.:.-.-..-.:..:.--.-.-.:.-.--.:...-.:.-.:..:.:.-.-.:..-...-..-..-.-..:...:..-..:...-.-...-.-....-..-.-...-.-.-..:..-.-.:.-.-.-.:.-...
..-.-.-.--...-...-...:...-.-.-.-.....-..:....-.-..-...-.:..-.-...-.....-.-..-..-..:..-.-..-..:.-..-.-.-.:.-.:...-....-.:.-.-.-.-...:...-.-..-.:...:..:...-.-..-.:.-.-..:.-.-..-..-.-.-...:.-..-.-.-.-.-.-.-..-.-.-..-.:..:.-..:...-.-.-.:...:..-...:...:..-.-..:....:.-.-..-.-.-..:..:...-..-....-.-...:..:..-.-.-...-....-..-..:...-..-.-..-.-.:..-.-..-.-.-...-....-.-...-.-.-...-.:.
.:.-.-.-..:.:.--.-.:...:.-.-.-.-.:.:..-...-.-.-..:..:..-..-..-.-..-.:.-..-.-.-.-.-..-..-.-..:...-.-..-.-..-...:.-.:.:.-...:.-.:.--...:.-.-.:....:...-..:..-.-.-...-.-.-...-..:..-.-..-.-....-.-..-.-..-..-.-.-.-..-.-...-...-...-.-..:..-.:...-.-.:..-...:..-.-..-.:...-.-.-.-.-.-..:..-.-.:..:.:..:..-.....-.-..-.:..-.:..-..-....-.-.-..-.-..-..-.-.-.-..-..:..-.-.-.-.:.-.-.-.:.-..-
...-.-.-.:.....-.-..-.:..-.-.-.-.....-.-.-.-...-...-..-..-..:..-.:.....-.-..-..-..-..-.-..-....-.-..-.-.-.-.:...-......-.:...-....:.:..-.-...:.:..-.-.-..:..-.-.:.-.-...:..-...-..-.-..-.-.-.-..:...-.-.-.-..-..-.-.-.-...-.-.-.-.-.-..:....:..-.-..-.--...:.-.-.-...-.:..:.-.-.-.-...-.-.-..:....:..-..-.:..-..:....:....-.-.-.-.-..-..-.-.-.-..-..-..-..:..-..-.-.-.-.-..-.-.-..-.--.
---.-.-.-..-.:.-.-.:....:..-.-.-.:.:..-.-..-.:..-.:..-.-.-.-..-....-.:..-..:..:..:..:..-.-.-.:..-..:..:..:...-.:.-.:.:.-...-.:.--.....-.-.:.:....-.:..-.-..:.-.-..-.-.-...-.-.-..:...-.-..-..-.-..-.-..-..-.-.-.-..-..-.:..-..-..-...-...:.:..:..-.:..-.--...-.-.-.:.-...:...-.-.-.--.-.-.-.-..-.:....-.-...-.-...-.-..-.-..-..-.-.-.-.-.-..-..-.-.-.-.-.-..-..-..-..-.-.-.-.-.-.:..-.-
...:.-.-.-.-..-.-.-..:.:..-.:.-.-...-.-..-.-...-.-...-..-..-..-.-.:....-.-...-.....-...-..-....-.-...-..:..:.-...-..-..-.:.-....-.:.:.-.-.....-.:....:.-.-...-.-.:.-..-.:..-..-.-..-.-.-.-.-.-..-..-.-.-.-..-..-..:..-....:..:..:..:.-.:.....-..:....:..-.---.-.-.-..-.:...-.:..-.-..:.-.-.-.-.-...-.:..-.-.-..-.-.-..-..-.:..:...-..-..-..:..:..-..-..-..-..-.-.-..:..-.-.:..:...-.-.-
.:...-.-.-.-.:..-.-.:....-.-...:.-.:..-.-.-..-.-...-.-.-.-.-.-..-...-.-..-.:...-.:...-.-.-.-.:..-.-.-.-...-..-.:.-.:..:...-.---.-..-..-.-.:.:.-...:.:...-.:.:..:...-.-....-..:...-..-..-..-.-..:..:...-..-.-.-.-.-..-.-.:......-.....-..-.:.:..-..:.:..-.-..-.-.-.-.:...-.:.-..:.-.-...-.-.-.-.-.:.-...-..-..-.-.-..-..-.-......-.-.-.-.-.-.....-..:..:..:..-.-..-.-..:.-.-..:..:.-.-.-
..-.:..-.-.-...:.-.-..-.:..-.:...-...-..-..-.-..-.:..-..-..-..-.-.-..-.-.-...-.-...-.-..-..-...-...-.-.:.:..:...-.-..:..:.-.-..:.-.-.:..:.....-.:.....--.-....:..-.-..-.:..-...-.-.-.-.-.-..-.-.....-.-.-..-..-..-...-....-.:.-..-.:..:..:....:..:....-.-.--.-.-.-.-..:.-...-.-...-.:.:..-.-.-.-..-.-.-..:..:..-..-.-.:..-.-.:.-.-..-..-..-.-.:..-...-.....-..-.-...-...-.-.-.....-.-.-
--.-..:.-.-.:.:...-.-.-...:....:..:.:..:..-.-.-.-...-.-.-.-.-.-.-..-.-..-..:..-.-.-.-.-.-.-.-.-.-.:..-.....:..:.-.-.-..-..-.-.-...:....:..---.:...:.:.-.-.-.:...-.-.-.-...-.-.-.-..-..-..-.:...-.:.-.-..-.:..:..:..:..-.:..-...-.-...-..:..-.:..-..-.:..:..-.-.-.-.-.-..-.:.-.-.--.-....:.-.-.-.:..-..-.-.....-..:..-...-..-....-..:..:..:...-..-.-.-..-.:..-.-..-.:..:.-.-.-.----.-.:.
..-.-...-.-.....-.:..:.--...:.:..-.......-..-..-..:..-..-..-..-..-.-.-.-.-...-..-..-..-..-..-..-....-.-.:.:.....-.-.-.-.-.-.-.-.:...:.:..QVQ/][Q.:....-.-.-V.-.:..-.-..-.-..H...-.-.-.-.-....-.-....-..a....-.j`QHg.jB$a.jm.+L...-.-.-.-..-.-..-.-.-...:..-.-.-.-.:..-.:...-.-.-..:..:.:...-.-.-..:.-.-..-.:.-..:...-.-..-.-.-.:..-.....-..-.-.-..-.-.-....-.-..:....-..-.-.-.-...-.-..
.:.-.:.:..-.:.:.-...:....:.:....-.-.:.-.:..:..:..-..-..:..:..-.-.-..-..-..-.:..:..:..:..:..:..:..:.-.-.-....-.:.-.-.-.-.-.-.-.-...:.....-Q.j[</Q<a/:aa._a/:a_ac..<ac.sca_as/a_ac.a<<ca_aa,<acs,:sa.<ca<Q/aa,.:F.Q.3[Q%.!.m$,.S..:...-.-.-.-.-.-.-.-.:.:...:..:..:...:....:.-.-.-.:..-....-.:..:..:...-..:.....-....-..-.-.-..-...-..-.:...-..-..-.-..-.-.:..-..:..-.-.-.-.-.-.-.:.-.-.:
...-.....:.-....-.:...-.:....-.:..:....-.....-...-.-..:.....-.-..-.-.-.-.-.-.....-.....-.....-......-.-.--.:..-.-.-.-.-.-.-.-.-.:..-.:.:.QT$/]fQ9nQ]m2'Q(Y.Qm(4c.9nW]P"Qm!4fQm(4cQ?]P4P5m[]FW"Q)myf]P4fQ]P"m:=f.Q.j[-?Vg_E][.j;...-.-.-.-.-.-.-.-.-.....-...:..-..:...:.:..-.-.-...-.-.:.-...:..-..-..-...-.:..-.:..-.-..-..:..-..-.-...-.-.-.-.-..-.-..-..-..:....-.-.:.-.-.-.-..-.-..
---.----...-.:.:...-.:.-..-.:.-..:..-.-..-.:...-.-..-....:..-..-.-..-..-..-..-.:...-.:...-.:...-.:.-.-.-..:..:..-.-.-.-.-.-.-.-..-.-..-..Q.]f]fQQsQ_2$[W>w QWcd[.QsQ]6sQWcjfQWcd[Q.]f]QEdf]fQ-Q)ks/]f]fQ]ka@.=L.Q=m($a<@jTTm.j::.-..-.-.-.-.-.-.-.-.:.:.-.:...-.-...:.....-.-.-.--.-.-...-.:...-.-.-.-.-.-....-.-..-.-..:..-..-.-.-.-.-.-.-..-..-.-.-..:..-..:...-..-.-...-.-.-.-.-.-.:
...:....:.:......:.-...-.-.-..-.-..-..-.-....-.-..-.-.-.-..-.-.-..-.-.-.-.-.-....-.-...-.-...-.-....-.-.-...-..:..:..:.-.-.-.-.:.-.-.:..:?:)()(?"!?~??`+?'-?-?!..)"?=?!W)?3f?-?!.?.)()"??^)(?.?."!-)()("("?'..G.?T".-??`?`.?.Z....-.-.-.-.-.-.-.-.-.....-..-.:..-.:...:.:.-.-.-.-.-.-.:.:...-.:..-.-.-..-.-.:..-..-..-.-..-..-..-..-..-..-..:..:...-..:...-.-...-.-.-.-.--.-.-.-.-.-.-.
.:...:.:....:.:.:..-.:.-.-.-.:..-.-.-.-..-.:..-.-.-..-.-..-..-..-.-..-..-..-.-.:..-.-.-.-..:..-.-.:..-.-.:.:..-..:..-...-.-.-.-..-.-...:..... ..-...-....--::.....:-)$wf4wZ':-................:.:.... ...--..-)`:...-.......=':.:..-.-.-.-.-.-.-.-.:.:.:.-.-...:...-.:....-.-.-.-.-.-.....:.-...:.-.-..:...-..-..:..:...-..-.-.-.-.-.-.-.-.-.....-.-.-...-..-..:...-.-.-..:.-.-.-.-.-.-
..-.:....-.:......-.-..-.-.-...:.-.-..-.-.-..-.-..-.-..-.-.-.-.-.-.-.-.-.-.-..-..-..-..-..:...-..-..-.-.-....:..:...-.:.-.-.-.-.:..-.:...:...:...-.-.-.-......:.-.... .. ..-..-...-....-.-...:....-...-....-.......-..-.-....:....-..-.-.-.-.-.-.-.......-.-.:...:.-...:.:..-.-.-.-.-.:.:...-.:...-.-.-..-.-.-..:.....-.-.-.-..-..-..-..-..-.-.:..-..-..-.-.-.-..-..-.-.-...-.-.-.-.-.-
--.-..-.:.-..-.:.:..-.:..-.-.:...-.-.-..-..-..-..:..-.-..-..-..-..-..-..-..-.-..-..:..:..-...-.-..-..-.-.-.:...:...:....-.-.-.-...:.-..:../:sa,/<..:..a..:.:.-..<a.sc../.-<..-.-.:/.:/.,<.-.:aa,-.-.-.-..a/_a,:<.../:..-.-.:...:.-..:.-.-.-.:.-.:.------.-.-..-.:..-.:.....:.-.-.-.-.-....:.-..-.:..-..-..-...-....:..-..-..-.-.-.-.-.-.-.-..-...-..:..-.-.-..-...-.-.-.-.:.-.-.-.-.-.-
..-.-.-...-.-.-....:....:.-.-..:.-.-..-.-.-.-.-.-..-..-.:..:..:..:..-.-.-.-..-.-.-...-..-..-.-..-.-.-.-.-.-..:...-...:.:.-.-.:.--...-.:..?f.c._k]a,..]4.<./_a/.:f-m')>)f._$..-..-)f.*f_k]a,..f 5.s/.a/.-]`32.5:$..Jf..-..-...-....-...-.-.-...-........-.-.-.:.-..-.-..:.:...-.-.-.-.-.:.:..-.:...-.-.-..:..:..-.:...-.-.-.-..-..-..-..-..-.:..-.-.-...-..-..:..:..-.-.-.-..-.-.-.-.:..
.:.-.-.:.:..-.-.:.:..:.:...-.-..-.-.-.-.-..-..-..-..-.-......-.....-.-..-..-.-..-.-.-..-..:..-.-.-..-.-.-.-.:..-.-.:.....-.-....-.:.-...-.f.P9/f]~f.:J+c]:f2:f...J4.-f.f.2].-s/:.:f..f:f]~f.-f.]]`]]'":..<rf.]-].<'f.-.-.-.-.-.:.-.-.:..-.-.:.-.:.:.:.:..:..:...-.-.-.:....:.-.-.-.-.-.....-.-..:.-.-..-...-..-.-..-..-.-..-.:..:..:..:..:....-.-..-.-.-.-..:.....:..-.-.-.:..:..:....:
...-.-.....:.-.-....-....-.:..:.-.-.-..-..:..:..:..:..-.-.:.-..-.:..-..:..:..-.-..-.-.-..:...-..-..:..-.-.-...-.:...-.:.:.-.:.:.-...-.:.-.f./:[fj.f.:P?6]=fL_f.:2`];<(.f-?4(......f.-f.f]:f..f.d]T9];s..<(.C.J.]:)?P:.-.-..-..-...-....:.-.-..-........-...:..-.:.-.-...--...-.-.-.-.-.:.:.-.-.-..-.-.-.-.-..-..-...-.-..-.-......-.....-..-.-..-.-...-..-.-...-.-...-.-.-...:..-..:.:.
---.-.:.:.:...-.-.:..-.:.-...:..-.-.-.-..:.....-.....-..-....-.-...-..-.....-..-.:...-.-....-.-.-.-..-.-.-.:.-.-..:.-..-...-....-.:.-...-.(.?!-!).(.+':)+!')!f.-??("! .(.:)..-.:.-(..(.!).(..??'-?^-?^.-)??+?':)..:(.-..-.-.-.-..:..--...-.-.:.-.:.:.:.-.:...-.-...:.-.:..:.:..-.-.-.:.....-.-.-.:..-..-.-.-.-.-..:..-.-.-..-.-.:...-.:...-..-.-..-.:..-.-...-.-.-..:.-.-.--...-.-.....
...:........-.:..-..:.-..-.:...-.-.-..-.-...:..-..:.-..:..-.:...-.-.-.-.-.:..-.-...-.-..-.-.-..-..-..-.-.-...-.-.-..-.:..:.-.:.:...-.--.:.............-...:3u':.:...-.-.....-.-..............:.:...:.--...:...........-.-..-.-..:....-.:.-.-...-..-...-.-..:.-.-.:...-...-....:.-.-.-..:.:.-.-.-...:..:...-..-..-...:...-..:..-...-.-...-.-.-..-.:....-.-..:..-...-...-.-.-.--.:..:.:.:
.:...:.:.:.:.-..:..:...-.-..-.:..-.-.-..-..-..-..-...-...-.-..-.-..-..-..-..-..-.-..-.-.-..-.-.-.-..:..:.-.:.-.-.-.:....:..-.....:.-.-.-..-..........:.......:...-.:.........-..-...-.............-....-.-....-..-..-..-..:...-....-.-..-.-.--.-.:..:.-.-.-..-.-...:..:.:..:.-...:.-.-.....-.-.-.:...-..-.-.-.-.-.:...-.-.-..-.-.-.-.-.-.-..-.-....-.-.-..:..-.-.:..:..-.-.-..:..-.....
..-.:........-.-..-..--.:.-.-...:.-.-..:..:..-.-.-.-.-.-.-...-..-.:..:..:..-..:...-.-..-.-.-..-..-.-..-...-..-.-.-...:.:..-.-.:.-...........-.-.-..-....-......-.......-..-.......-........-..-....................-..................-.....................-....-.............-.......-.-..........-...........................................-............................-.....-.-.
--.-..-.:.:.:..-.-.-.-....-.-.:...-..-...-...-..-..-..-.-..:..-.-......-...-.-..-.-.-.-..-..-.-.-...-.-.:.-.:..:..:.:....-.-.-......-.-..-.-......-.......-.-....-..-....-..-..-....-..-.-...-...-..-.-.-..-.-.-.-....-.-....-.-.-.-.-...-.-..-.-..-..-..-.-...-....-.....-..-......-.-....-.-.-.-.......-..-..-.....-..-..-..-..-..-..-..-.-..-...-..-..-.....-......-.-.-.-.....-....
..-.-.-..-....:..-.-.-.:.:..:..-.:.-.-.:...-.-.-.-.-.-...-...-.-..:.-.:..-.-..-..-..-..-.-.-.-..-.:..-.-..-...:..-....-.:..-.-.-.::-:.:.:-:.:-:-:---:-::-:.:.:-:-:.:.:-:---:.:-:.::--:.:--:-:.:-:.::.:.:.:-:.:.:.:.:-:.:.:-:-:.:.:.:.:.::.:.:-:.:-:.:-:.:-:.:-:.:-:--:-::--:--:-:-:-:.:.:-:.:.:.:.:-:-:-:.:--:--:-:-:.:--:--:.:.:-:.:-:.:-:.:.:--:--:--:--:.::--:.::-:.:.:.:.:-:-:.:-:-
.:.-.-.:..-.:...:.-.-.-....:..-.-..-..-..-.-..-..-..-.-.:..:..-..:...-...-..-.-.-.-.-.-.-..-..-.-...-.-.-.-.:...-.-.:.-...:.-.-..:..-.:.:..:.-.-.--.-.-..----.:..-----.-.:.--.:.:..:..:.--.-.:.-.:..:.:.:.-.:.:.:.:.:.:.:.-.:.:.:.:.:.:..:.:.-.:.-.:.-.:.-.:..:.:..:.-.-.-.-.:..-.-.-.:.:.--------.:.-.-.:.--.-.-.-.--.:..:..:.:.-.:.-.:.-.:.:.:..:..:..-.--.-.:.:..-.:.:.:.:.-.-.:.-.-
...-.-...:.-..:...-.-.-.:.:...-.-.:..:...-..-.-.-.-.-..-..-..-..:...-..-.-.-.-..-..-..-..-.-.-.-..:..-.-.-.-..:..-.-..-.:...-.-........................................................................................................................................................................................................................................................
---.-.:.:...-..-.:..-.-.....-.:..-..-..-.-.-.-..-..-..:..-..-..:...-..:...-..-.-.-.-.-.-.-..-..-.-..-.-.-.-.-..-.:..:..-..:.-.-.:......................-...............................................................................................................................................................................................................................
...:......--.:.-...:.-.:.:.:....:..:..-..-..-..:..:..-...-.-.-....-..-..-.-.-..-..-..-..-.-.-.-..-..-.-.-.-.-.:....:..:..:..-.-...:.:.:.:.--.:.:.:.:.:.-.:.:.-.:.:.:..-.-.-.-..-...-..-.-.-.-..-..-.-..-..-..-...-........-..-.......-.:.:.-.:.:.:.:.:.:.:.:.:.-.:.--.:.:.:.:.:.:.:.:.:.:.-.:.-.:.-.:..-.-.-.-.-.-.:.-.-.-.-.-.-..-.-.-..-..-...-..-.-.-.:.-.-.-..-.-.:.-.:.-.:.:.:.:.:
.:...:.:.:..-..-.:...-.......:.:..-....-.-.-.-...-...-.-.-..-.-.-.-.-..-.-..-.:..:..:..:...-..-.:..-.-.-.:.-.-..:.:.....:..-.-.--.........-.-.........-.-....-.......-..-..-.-.-.-.-.-.-..-..-.-.-.-..:..-.-.-.-.-.-.:.:.-.-..-.:.-.:......-...................-...-.-...............-....-...-...-...-..-..-..-.-....-..-..-..-.-.-..-.-.-.-.-.-.-..-..-...-.-.-.-..-..-...-..........
..-.:......:..:...-.:.-.:.:.:....-.-.:..-..-..-.:..-.-..-..:...-.-..-.-..-.-....-.....-..-.-.-....-.-.-.-...:..:....-.:...-.-.-..:.:.:.:.:..-.:.:.:.:.-.-.:.:.------.-.-.-.-..-..-..-..-.-.-.-..-..-.-..-..-..-.-..-......-.-.-....-..:.:.:.-----------------.:.--.:..-.:.:.:.:.:.:.:..:.:.-.:.-.:.-.-..:..:..-..-.-.-.-.-.-.-.-..-..:..-..-..-.-..-.-.-..-.-..-..-.-.-.-.:.-.:.:.:.:.:
--.-..-.:.:..-..:.-...-.......-.:..-...:..:..:....-..-.-.-...-.-..-.-..-.-..-.:...-.:...-..-..-.:...-.-.-.:...:..-.:...-.:..-.-.:..........:..........-.-..........-..-..-..-.-.-.-.-.-..-..-.-.-.-..-...-.-.-..-.-.-.:.-.-..-..:.-..-......-...............-...-.-..-.-.......-......:....-...-...-..-...-...-.:...-.-..-..-..-.-.-...-..:..:...-.-..-.-.-..-.-.-..-.-.-..-.-.........
..-.-.-..-..-.-...-.:.-.:.:.:.-...:..:......-..-.-..:...-.-.-.-..:..-.-.-..:....-.-...-.-.-.-.-...-.-.-.-...:...-.-..:.-...:.-.-..-.:.:.:.:..:.:.:.:.:.-.--.:.:.:.:..:..:..:..-..-.-..-.:..:...-..-.-..:..-..-.:...-.....-..:..-...-.-.:.:.:..:.:.:.:.:.:.:.-.:.-..-.-.-.:.:.:.-.:.:.:..-.:.-.:.--.-.:..:...-.-...-.-..-.-.-..:...-.-.-.-...-..-.-..-.-..-..:..-..-.-.-.-.:..-.:.:.:.:.
.:.-.-.:..-.-.-.:.-..-.-.....-.--..-...-.:.-..-..-.-..-.-..-..-.-..-..-..-...-.:..-.-.-..-..-..-.-..-.-.-.:...:..-.-...-.:...-.-.-.-.....-..-..........-.-.-.....-..-.....-..-..:...-.-......-.-.-..-.-..-.-.-...-.-.:.-.-.-..-..-..:........:.......-.....-.-..-.:.-.:...-....-.......-.-...:....:....-..-.-..-.-.-..:..-..-...-.-..-..-.:...-..-.:..-.-.-...-..:..-.-.-...:.........-
...-.-...:.-.-.-..-.:..-.:.:.-.-.--..:..-...-..-.-..-..-.-.-.-..-.-..:..:..:..-..-..-..-.-.-.-.-..-.-.-.-...:...:.-.---.-..:.-.-.-.-.:.:.-.-.-.:.:.:.:.-.-..:.:.:..:..-.:...-..-..-.-..-.-.:..-..-.:...-..-.-..:..-.....-..-..-.-.-...:.:.:.:..-.:.:.-.:.:.-.-.:....-...:.-.:.:.------.-.-.:...--..-.-..-..-.-.-..-..:...-.-.-.-.-.-.-.:....-.-.-....-..-..-.-.-...-.-.-.:.:..:.:.:.:..
---.-.:.:...:..-.:....:......-.-.-.-...-..-.-.:..-.-.-.-..-..-.:...-...-.....-..-..:..:..-..-..-.-..:.-.-.:..-.:...-...-.-..-.-.-.-.-....-.-.-......-..-.-.:......:...-...-.-.-..-.-.-.-..-..-..:....-.-.-..-.-..-..:.-.-.-.-.-..-..:.........-.-....-....-.-.-..:.:.-.:..-.....-.....:.-.-..:.-.--..-.:..:...-.-.-.-...-..-..-.-..-..-..-.-.-..-.:.-..:..:..-..-.-.-.-.-....-.......--
...:......-...:....:.:..:.:.:.-.-.-.-.:..:...-...-..-..-.-.-.-...-.-.:...-.:..-.-.-.....-..:..:..-.-...:...-.-...--.---.-.:.-.-.-.-.-.:.:.-.-.------.-.-.-...-.:.:...-.-.-.-..-.-.-...-..:..-..:...:..-..-.:...-..-....-..-..-..:..-..:.:.:.:.-.-.:.:.---.-.-.-.-....-...-.---.:..:.:...-.-.-..-..-.-....-..-.-..-..-..-.-.-.-.-..:..:....-..-.-.....-...-..-.-.-...-.-.-.:.-.-.:.:.:..
.:...:.:.:.--...:.:....-......-.-.-..-.....-.-..:..:..:...-..-.-..-....-.-...-.-..-.-.:..-...-...-..-.:..:.-.-.:.-.-...:....-.-.-.-.-.....-.-.-.....-.-.-.--.-.....-.-..-..-.-..-..-.:..:...-.-...-..-..:....-.-.-.-.:..-.-.-.-...-.-....-...-.-.-.......:.-.-.-.-.:.-.:.-.-..-..:....:.-.-.-.:..:.-.-.:...-..-.-.-..-.-..-..-..-...-...:..-.-..-.:.-.-.-..-...-.-.:.-.-.-..-.-.......:
..-.:......-.---....-.:..:.:.:..-.-.:..-.:..-..:.....-..-.-.-..-.-.-.:..-.-.-.-..:...-..-.-.-..-.-.-.-..-..-.-..-.-.--...:.:.-.-.-.-.:.:.:..-.-.:.:.-.-.-.-.-.:.:.:...-.-.-..-.:..:....-...-..-.-..-..-...-.-.-..-..-..-.-..-..-.-..-.:.:..:.-.-.-.:.:.:...-.-.-.-..-.-..-.-.:..:..-.:..-.-.-...:...-....-.-.-..-..-.-..-.-.-.-.-.:...-...:..-.-.-...-.-.-..-.:...-...-.-.-.-.-.:.:.:..
--.-..-.:.:..-..-.:.-...:......:.-.-...-...-..:...-.-..-..-..-.-..-....-..-.-..-...-.-.-..-.-.-..-..-.-.-.-.-.:.-.-.-.---....-.-.-.-.......:.-.-....-.-.-.-.-.......-.-..-.-]f...-..-a...-]fQ-..-.:.V-.-.-.-..-.-.-.-..-..-.H..-.-.-.-....:..-.-.-.....a.-.-.-.-.-.:..-.:..-...:...-...:..-.-.:...--..:.-.-..-.:..:..-.-.-..-..-....-.-.:...-..-..-.-..-..-.-...-...:.-.-.-.-.-....-..:
..-.-.-..-..:..:..-..:.:..-.:.:...-..-.-.-.-.-...-.-.-..-.-.-.-..:..:.-.-.-..-.-.:..-...-.-..-.-.-..:..-.-.-.-..-.-.-.-..-.:.-.-.-.-.:.:.:...-.-.:.:.-.-.:.-.------.-.-.-..-]faa,<a,<Qcaa.jfQ<a/=aa,a_ac.as/_w,:.<a/:sca_as/a_ac.a<<ca_aa,<a/a/:sa.<aa<Q/sa,:..-.-...:....:.-.:...:.--...:.-.-..:...-....-..:.......-..-..-.-.-.-.:..-....-..-.-.-..-.:..:..-.-.-.:...-.-.-.-.-.:.:..:.
.:.-.-.:..-...-..:..:....-.-....--.:..-..-..-..-.-..-.-.-..-..-.-......-.-..:..-...-..:..-..:...-..-..:.-.-.-.-.-.-.-.-.:..-..:..-.-.......:.-.-.....-.-...-.-....-.-..-.-.-]fQ!QQoT.Q"5df]fQ9nQ-{D`Qm(4cQ"Qmym.-9nQ]P"Qm!4fQm(4cQ?]P4P5mf]FQ!Q<myf]P4[Q]E"m-.-.-.--...:.:...:..-...-.--...-.-.-..:..-.:..-...-.-.:..-.-.-.-..-..-..-..:.-.-.-..-.-.-......-..-..-..-.-.-.-.-.-..-..:..
...-.-...:.-.:.-...:..-.:..-.:.:..-..-..:..:..:...-.-..-.-.-.-..-.-.:.-..-.-..-..-..-...:..-..-.-.-.-...-.-.-.-.-.-.-.-...:..:..-.:.------..-.-.---.:..-.:.-.-.:.:..-.-..-.-]fQ.Qa3W.Qjkdf]fQQsQ_W=.QWcd[Q.Q4>w..QsQ]ksQWcjfQWcd[Q.]f]QEdf]fQ.Q=ks/]f]fQ]ks@..-.-.-.---....-...-.---.-..:.:..-.-.-..:....-.-.-.-.-..-.-..-..-.-.-..-..:...-..-.-..-..-.-.:..-.-.-...-.:..:.-.-.:..-...-
---.-.:.:...:...:.:...-...:......:..-..:.....-..-.-..-.-..-..-.:...-...-.-...-..:..:..:...-..-..-...-.:.-.-.-.-.-.-.-.-.:...:...-........-.:..-.-..-..:.-..-.-.....:...-.-.-)(?.?"?^.?^??()(?"!?"?T'?-?!.?.?+?'.."!?:?!W)?3f?-?!.?.)()"??^)(?.?:!!.)()("(!!`.-.-.:..-..-.:.-.:.-.-..-.-.....:.-.-.-...-.:...-.-...-..-..:..:..-..-.-.-...-..:..-.:..:..-...-.-..-.-.-...:...-.-..:.--.-
...:......-...:.....-.-.:...:.:.:..-..-...:..-...-.-.-..-.-.-....-.-.-.-.-.-.-.-.....-..-..-.-.-.-.:...-.-.-.:.-.:.-.-.-..:...-.:.:.:.:.:...-.:..-.-.:...-.-.-.:.:...-.-.-......:.-.-...... .-...:..::....:...:.--..)$wf4wZ'::.........:......:...... ......:..-...:..:...-.-..-.-.:..-.:.:...-.-.-.:..-..-.-..-.:..:..-.....-..:..-..-.-.-...-....-...-.-.-..-.-..-.:.:..-.-.-.-...-.-
.:...:.:.:.--...:.:..:.-..:.......-.-.-.-...-..:..-.-.-.-..-.-.:..-..-..-..-.-...-.:...-.-.-..-..-...:.-.-.-...-...-.-.-.:..-.-........-..:.-...:.-.-..-.-.:..-....:..-..-.-...-...-...:....:...-........-..:...-..........-......-.......:..:.......:.-...-..:.--...:..:.-.-.:..-...:.-...-.:..-.-...-..-..-.-....-...-.-.:..-...-.-.-..-.-.-.-.:...-.-..-.-.-..-..-....-.-.:.-.-.:.-.
..-.:......-.--.....:...-..-.:.:.:..-..-..:..-...-..-..-.-.-..-..-..:..:..-..-.:..-..-.-..-.-.-.-..-...-.-.-.:.-.:.-.-.-...-.:.--.:.:.:..:..-.:...-.-.-.-.-..:..:.:..-..:...-<...-_:..aa :....-..a/_a,:<.../-.-.-.<..<._./..-<ac...-.:.:.<a.sc../:.<-..-.:.-.-....:.:.....-.-...:.-.:...--.:...:.-.:..-.-..:..-.:.-..-.-..-..-.-.-..-..-.-..-..-...-.-..-.-..-..:..:..:.-.-.-...-.-..-.
--.-..-.:.:..-.----...:.-.:...-....:..:..-..-.-.:..:..:...-..:..-..:.....-.-.-...-..-.-.-.-..-..-.-.-.:.-.-.-..-...-.-.-.:.-....-.......:...-..-.:..:..:..-.-..:......-...-.=$.<a,j/.j`-(s,:ca :]`32.5:$..Jf.-..-=$.=$ j/ka..].)>_a._a.-.f-m')>)f._$..:...-.-.-.:.....----.-.--...-...:.-.-..:...-...-..-.-..-.....-.-..-.-.-..-.-.-.-.-..-.-.-.-.-.-..:..-.-.-......:..-.-.-.--.-.-.-.
..-.-.-..-..:..-...:.:...-..:.-.:.:.....-..-..-...-.....-.-.-...-.-...:.-..-..-.-.-.-..-..-.-.-.-..-.-..-.-.-.-.--.-.-.-...-.:.:.------...-.:.-.-..:..-..:.-.-...-.:.-.-.-.-.].6;'j.--Yaj`3.F-f..<rf.].].<'f._w :.]..]-j.fj .j..fr-[2-(...J4..f.f.2]-...:.-.-.-..-.:.:....-.-..:.:.--...-.-.-..:.-.:..-.-..-..-.:.-.-..:..-..-.-..-..-..-.-..-..-..-..:...-..-.-.:.-...-.-.-.-..:.-.:.-
.:.-.-.:..-...:..:.....--.-...-.....-.:..-.-.-.-.-..-.:..-..-.-.-..-.-...-.-.-..-..-..:..:...-..-.-..-.:..-.-.-.-.-.-.-.:.:...........-.:.-...-.-.-..-.-...-.-.:.-...-..-..-.j./![]:.],:W?9.k_[.<(.C.J.j.)TP`:....]:.]:]-f]:.]-<(D?[L_/.:2`];<(.f-?4(.:..-.-.-.--.-....:.:.-.:.....-.--.:..-.-...-...-.-..:..:.....-..:...-.-..-.-.-.-.-.-.-.-.-.-.-.-...-.-.-..-...:.:..-.-.-.:...-...
...-.-...:.-.:..-..:.:.-.-.:.:.---.:....-..-..-..-.-....-..:...-..:....-.-..-.-.-.-.-...-..-.-.-..-.-.-..:.-.-.-.-.-.-.-....:.:.:.:.:.-...-.:.-.-.-.-.-.--.-.-...-.:..-.-.-..).)?`)':.?!-?"-F?-.)??+!':)...(.....:)..).+'()..)?! "?`"?`:-??("!..(.:).:..:..-.-.-.-.-.:.....-...:.:..-..-..:..-.:.-.:..-..:.....-.:..-....:...-.-..-..-..-..-..-..-..-..-.-..-..:...-....:.-.-.-..-.-.:.
---.-.:.:...:..-.-..-..-.-.....-..-..-.-.-.-.-.-.-..-.:..-...-.-.-..-.:..-.-..-..-..-.-...-..-..-.-..:..:...-.-.-.-.-.-.-.:..........-.--.:...-.-.-.-.-.-.-.-.---.-..-..-..-..............-.(....-.............-........:..........--.:..-..-..........-..:..:..-.-.-..:.:.-.:....-.:.-.-...:.-..-...-..:...-.:....-.-.-...-.-.-.-..:..:..:..:..:..:..:..-.-..-..-..-.:...-.-.-.:..:...
...:......-...-.-.:.-.-.-.-.:.:..:..:..-..-..-..-..:....:..:..-..-..-...-..-.-.-.-.-..-.:..-.-.-.-..-..-..-.-.-.-.-.-.-.-..-.:.:.:.:.-.-.-..:.-.-.-.-.-.-.-.-.-..-.-..-.-.-.-...-.-.:..-.-.....:..-.-.-......-.-.-..-.-......-...-..-...-.-.-.:.-.:.-.:..:..-..:..:..:.....-...:.:....-.-.:...-.:..:..-....-....-.:...-.-.-.-..-..-...-.....-.....-.....-..-.-..-..:...-.:..-.-...:..-.
.:...:.:.:.--.-.-...-.-.-.-..-..-..:...-.-.-.-.-.-...-.:.....-..:..:..-.-.-..-..-..-.-....:..-..-..:..:..:..:.-.-.-.-.-.-.:.-.....-..-.-..-...-.-.-.-.-.-.-.-.-.:..-...........-...........-...............-............-.-...........-....-............................-.-..-......:.......-................-......................-.....-.....-.....-...............-......-..-......
..-.:......-.-.-.--.-.-.-.-.:..:..:...-..-..-..-..-.:.....:.-.-...-..-.-..-.:..:..:..-.:.-...-.-.-...-..:..-..-.-.-.-.-.-...-.:.:.-.:..-.:.--.:..:.-.-.-.-.-.:....:._i_s_i_s_i_i_i_s_i_s_i_i_s_i_s_i_s_i_s_i_%_s_i_s_i_s_i_i_s_i_s_i_s_i_s_i_%_s_i_s_i_s_i_s_i_s_i_s_i_s_i_i_%_i_%_i_i_s_i_s_i_s_i_s_i_s_%_s_i_s_i_i_s_i_s_i_s_i_s_i_i_s_i_i_s_i_i_s_i_i_s_i_s_i_s_i_s_i_s_i_%_i_i_%_s,
--.-..-.:.:..-.-.-.-.-.-.-.-..:..-...-.-.-.-.-.-.-.-..-.-....-.-.-..-...-.-......-...-.....-.-..-.-.-.-...-.-.-.-.-.-.-.:.:.-....-.-..:....-.-..:...-.-.-.-.-..:.:..nnnnnnnnnnonononnnnnnnononnnnnnnnnnnnnnnnnnnnnnnnnonnnnnonnnonnnonnnnnnnnnnnnnnnnnnnnnnnnnnnnnnnnnnnnnnnonnnonnnonnnnnonnnnnnnnnnnnnnnnnnnnnnnononnnnnnnnnnnonnnononnnnnonnnnnonnnnnonnnonnnonnnnnnnnnnnonnnononnnn
..-.-.-..-..:..:..:..:..:.-.-...-.-.:...-..-..-..-...-..-.:.-...-.-..-.:..-.-.:.-..-.-.-.:..-.-.-..-.-.:.:..-.-.-.-.-.:.....-.:.:..-.-..:.:..-.-..-.-.-.-.-.-.-.....{nvnvnnvnnvnnnnvnvnnvnnvnnvnnvnnnvnnnvnnnnnvnnnvnnvnvnnnvnnvnnvnnvnnvnnvnnnvnnnvnnnvnnnvnnnvnnnvnnvnnvnnnnnnnnnnnvnnvnnvnvnnvnnvnnnvnnvnnvnnvnnvnnvnnvnnnvnnvnnvnnvnvnnnnvnvnnnvnvnnnvnnvnvnnvnnnvnvnnvnnvnnnnnvnnv
.:.-.-.:..-...:..-..:..-...:.--.-.-...-.-.-.-.-.-.-.:..:.....-.:...-.-...-..-....-.-..-....:...-..:..-.....:.-.-.-.:....:.:.-.....:..-.-....:..-.-.-.:.-.:.-.-.-.:........... ... ..... ..... ..... ... ... . ... ... .... ... ..... ........ ... ... ... ... ... ... ...... . .. . ...... ....... .. ... ..... ..... ..... ... ..... .... ....... ..... ....... .. ........ ... ......
...-.-...:.-.:..-.-...-.-.:....:..-.:..-..-..-..-..-.....-.:..-..-.-.-.-..-.-.-.:...-.-.:.-..-.-.-...-.:.:...-.-.-...:.:....-.:.:...:..-.:.:..:..-.-...-...-.-.-..-.-.........-.........-....................-........-........-.....-........-..-...-...-...-...-...-.......-.-..-.-.....-.......-..-....-.....-.....-.........-.....-..................-.......-..-.......-...-......
---.-.:.:...:...-.-.:..-.-..-.:..:....-..:..:..:..:..-.:..-..-..-.-..-..-.-..-....-.-..-....-..-..-.-.-....:..:..-.:.....-.:.....-.:..:......-..:.-.--.-.:.-.-.-.:.-...-.....-..-.:...-...-..-.:...-.-.-.:.-.-.-.-.:.-..-.-.:.-.....-.-.-.-.-.:.-.-.:..:..:.-.-.:..:..:.:.-.:.-..:..-.-.-..:.:.-.-.-..-.-...-..-....-....-.-.:.-....-...-.-.-.....-.:..-...-...-...-.-.-.-.-.--.:.-.-.-
...:......-...-.:..-..:.-.-.-...-..:.-..:.....-.....-....-..-..:...-.-.-.-.-.-.:.-.-.-.-..:..-.-.-..-.-.:.:..-..:..-.:.:.-...:.:.-...-..:.:.:..-...-..:...-.-.-.-..-.-.-.-.:..-.-...-.-.:..-.-...-.-.-.-....-..-..-...-.-..-...-.:.-.-.-.-.-.-...-.-..:..-..-.-...:..:....-...-.:..:..-.-.:....-.-.-.:...-.:..-.-.:..-.:..-.....-.:..-.:..-.-.-.:..-..-.-.:..-.-.:..-.-.-.-.-..:...-.-.
.:...:.:.:.--.-...:..:...-.-.--.-.-...-....:..-..:.-..:.-.-.-.-..-.-..-..-..-.....-..-..-...-.-..-.-.-.-....-.-...:......-.:....-.--.-.-......:..:.-.:..:.-.-.-.-.:...-..-...:..-.-.-..-..-..-.-.-.-..-..:.-..:..:..-.-..-.-.-.-....-.-.-.-.-.-.:.-.-...-.-.-.-.:...-..-.:..:..-..-..:.-.-..-.:..-.-...-.-...-..-...-.-..-..:.-.-...-.-..-..-..-..-..-..-...-.-....-.-.-.-.-.-...-.:..:
..-.:......-.-.:.:..-..-.:..:..-.-.-.-.-.:...-..-...-....-..-..-..-.-.-.-.-.-.:.-.-.-.-.-.:..-..:...-.-.-.:.-.-.:...:.:.:..-.:.:..-.-.-.-.:.:...:..-...-..-.-.-.-...-.-.-.-.-..-..-..-.-..-.-..-..-..:..-...-...-...-..-.-..-..-.-.-.-.-.-.-.-.-..-.-.:.-.-.-.-..-.:..:....:..:..:..-...-.-.-...:.-..-..-.-.-..:..-.-..-..-....-.-.-.-..-..:..:..-.-.-.-.-.-..-.:..-.-.-.-.-.-.:.-...:.
--.-..-.:.:..-.....-.-.-...:..-.-.-.-.-....-..-.-.-.-.-.:..:..:..:...-..-..-.....-..-..-....-..:...:..-.-..-.-.-..:.......:......:..-.-.-....-.:..-.--.-.:..-.-.-.:..-..-..-..-..:..:..-.-..-.:..:..-..-..-.-.:...-.-.-.-..:..:...-.-.-.-.-.-.-.-.-.-..-.-.-.:.-.-...:..--...-..:..-.-.:.-.-.:.:...:..-.-..-.-...-.-..:..:..:.-..-.-..-.-.-.....-..-..-..-..-.-...-.-.-.-.:.-.-..-.:...
..-.-.-..-..:.-.:.:..-.-.:...-.-.-.-...-.:..-.-.-..-..-...-.....-..-.-.-.-.-.:.-.-.-.-.-.:.-.-....-..-.-.:.-.-.-.:..:.:.:...:.:.:..-.:.-.:.:.-...-.-..:....:.-.-.-..:..:..:..:..-.....-..-.-....-...-..-.-.-....-.-..-..-.-.....-.-.-.-.-.-.-.-.-.-.-.:..-.-...-.-.:...-..:.:..:...-.-...-.-.....-...-.-.-.-..-.-..-.-.....-...-.-..-.-..-..-.:..-.-.-.-.-.-.-..-..-.-.-.-...:.-.:...:.
.:.-.-.:..-...-.....:.-.-..:.-.-.-.-.:..-..-.-..-.-.-.-.-...-.:...-..-..-..-....-..-..-.....-.-.-.-..-.-...-.-.-...-......:.......-.-...-....-.:.-.-.:..:.:...-.-.-...-.....-...-.-.:..-.-..-.:...-.-.-..-..-.:..-.-.-.-..-.-.:..-..-.-.-.-.-.-.-.-.-...:.-.:.:..:..-.:..:....:...:.-.:.:..:.--.:.--.-..-..-.-.-.-.-..-.:.-..-.-.-.-..-.-.-.-...-.-..-..-..-..-.-.:..-.-.-.:...-...:..-
...-.-...:.-.:.----...-.-.:...-.-.:....:..-..-.-..-..-..-.:..-..-.-.-.-.-.-..-.:..:..:..:.-..-..-..-.-.-.:.-.-.-.:..-.:.:...:.:.:.-.-.:.-.:.:...-.-.-..-....-.-.-.-.:...-.:...-.-..-..-..-.-.-..-.-..-.-.-.-.-..-..-..-.-.-..-..-..-.-.-.:.-.:.-.:.-.:.:...-....:..-.-..:..-.:...:...-....:...-...-..-.-.-.-..-..-..-.-....-.-.-..-.-.-..-..-.-.-..-.-.-.-.-.-.-....-.-.-.-..:..:.:..-.
---.-.:.:...:.....-.:.-.-...--.-.-..:....-..:...-.-.-.-.-...:..-..-..-..-..-.-......-......-.-.-.-.-.-.-..-.-.-.-..:.-....:.......-.-...-.....:.-.-.-.-.-.:..:.-.:.-..-.-...-.-..-.-.-..:..-..-..-..:...-..-...-..:..:...-..:..-..:..-.-...-...-...-.....-.:.-.:...-.-.-..-.-..-...-.:.-.:..-.-.:.-.-..-..-..:..:..:..-.-.:..-..-.-..-..:..:..-..-.-..-..-..-..-.:..-.-.-.-.-..:....-.-
...:......-...---.-..-.-.--.-.-.-.-...-.:..-..-.-.-..-..-.-...-..:..:..:..:..-.-.:.-..-.:.-.-..-..-..-.-.:..-.-.-.:...-.:..-.:.:.:..:.--.--.:...-.-.-.-.-...:...-....-..-.-.-..-.-..-..:...-.-..:..-..-.-.-.-.:..:.....-.-.-...-.-..-.-.:.:..:.-.:.-.:.:.-...-...-.:..-.-.-.-.-.:.:.-...:...-.-..-.-..:..:..-.....-..-..-...-..:...-.-.-.....-.-.-..-.-.-.-.-.-....-.-.-.-.-.-...-.:..-
.:...:.:.:.--.-..:.-.:..-..:..-.-.-.:..-...-..-.-..-.-.-..-.-..-...-.....-..-..-....-.-....-..:..:..-.-.-..:.-.-.-..-.-..-.-..-....:...-.-.-..:.-.-.-.-.-.:...--.-.:..-.-..-.-.-.-.-..:...-..-.-..-..-.-..-..-......:.-..-..-.-..-..-.-.....:..-...-.....-.:.-.:.-...:.-.-.-.-.-.....-.:...:..:.-.-..:.....-..-.:...-..:..-..-...-.-..-..-.:..-..-.-.-..-..-..-.:...:.-.-.-.-.:.:.-..:.
..-.:......-.-.-...-...:.-...:.-.-.-..-..-.-.-..-.-.-..-.:..-.:..:...-.:...-..:..-.:...-.:..-...-...-.-.-.:...-.-.-.-.-.:.-.:.-.:.:..-.-.-..:...-.-.-.-.-..-.:..-.-..-.-..:...-..-..-....-..:...-..-.-..-.-.-..-.:.-...-.-.-..-.:..-.-.:.:.:..-.--.-.:.:.-...-..-.--...-.-.-.-.-.:.:.-...-...:..-.-.-...:..-.-.-..-.-.-...-.:..:..-.-.-.-.-..-..:..-..-.-.-.-.-...-...-.-.-.-.....-.-..
--.-..-.:.:..-.-.:.-.:...-.:...-.-.-.-..:..-..-.-..-..:....-....-..-.-...-.-.-..-.-..-.-...-.-.-..-.-.-.-...-.-.-.-.-.-...-...-.....-.-.-.-...:.-.-.-.-.-.:...-.-.-.-..-.-..-.-.-.-.-.-.-.-...-.-.-.-..:..-..-.-.....-.-..-.-.-.....:........-.-..:.....-.---.:..-..:.:..-.-.-.-.....-.:.-.:...-.-.-..-...-..-..-..-..-..:....-..-..-..-..-.-..-..-..:..-..-..-.-..--.-.-.-.-.:.:.-.-.:
